{
  "dataset_reader": {
    "type": "yahoo_csv_reader",
    "lazy": true,
    "tokens": 0,
    "label": 1,
    "skip_header": true,
    "token_indexers": {
      "tokens": {
        "type": "single_id",
        "lowercase_tokens": true
    },
      "elmo": {
      "type": "elmo_characters"
    }}
  },
  "train_data_path": "tests/fixtures/yahoo/train.csv",
  "validation_data_path": "tests/fixtures/yahoo/valid.csv",
  "test_data_path": "tests/fixtures/yahoo/test.csv",
  "model": {
    "type": "bcn",
    "text_field_embedder": {
      "token_embedders": {
        "tokens": {

            "type": "embedding",
            "embedding_dim": 300,
            "trainable": false
        }
      }
    },
    "embedding_dropout": 0.5,
    "pre_encode_feedforward": {
        "input_dim": 1324,
        "num_layers": 1,
        "hidden_dims": [300],
        "activations": ["relu"],
        "dropout": [0.25]
    },
    "encoder": {
      "type": "lstm",
      "input_size": 300,
      "hidden_size": 300,
      "num_layers": 1,
      "bidirectional": true
    },
    "integrator": {
      "type": "lstm",
      "input_size": 1800,
      "hidden_size": 300,
      "num_layers": 1,
      "bidirectional": true
    },
    "integrator_dropout": 0.1,
    "elmo": {
      "options_file": "elmo_trained/options.json",
      "weight_file": "elmo_trained/weights.hdf5",
      "do_layer_norm": false,
      "dropout": 0.0,
      "num_output_representations": 1
    },
    "use_input_elmo": true,
    "use_integrator_output_elmo": false,
    "output_layer": {
        "input_dim": 2400,
        "num_layers": 3,
        "output_dims": [1200, 600, 2],
        "pool_sizes": 4,
        "dropout": [0.2, 0.3, 0.0]
    }
  },
  "iterator": {
    "type": "bucket",
    "sorting_keys": [["tokens", "num_tokens"]],
    "batch_size" : 16
  },
  "trainer": {
    "num_epochs": 10,
    "patience": 5,
    "grad_norm": 5.0,
    "validation_metric": "+accuracy",
    "cuda_device": 0,
    "optimizer": {
      "type": "adam",
      "lr": 0.001
    }
  }
}